%%(-----------------------------------------------------------------------------
%%( 15-Apr-2015, M. Woodley (SLAC)
%%(    ILC2015a release
%%(-----------------------------------------------------------------------------
%%( TESLA 9-cell cavity longitudinal wakefield, 25-Jan-2005
%%( Units are V/C/m,  Based on equations from preprint: tesla 2003-19
%%( #     z[m]            W(z)
%%(-----------------------------------------------------------------------------
1	0.000000E+00	4.150000E+13
2	3.000000E-05	3.639338E+13
3	6.000000E-05	3.446685E+13
4	9.000000E-05	3.305801E+13
5	1.200000E-04	3.191514E+13
6	1.500000E-04	3.094104E+13
7	1.800000E-04	3.008599E+13
8	2.100000E-04	2.932057E+13
9	2.400000E-04	2.862564E+13
10	2.700000E-04	2.798795E+13
11	3.000000E-04	2.739789E+13
12	3.300000E-04	2.684821E+13
13	3.600000E-04	2.633331E+13
14	3.900000E-04	2.584873E+13
15	4.200000E-04	2.539087E+13
16	4.500000E-04	2.495679E+13
17	4.800000E-04	2.454401E+13
18	5.100000E-04	2.415045E+13
19	5.400000E-04	2.377435E+13
20	5.700000E-04	2.341418E+13
21	6.000000E-04	2.306862E+13
22	6.300000E-04	2.273650E+13
23	6.600000E-04	2.241682E+13
24	6.900000E-04	2.210867E+13
25	7.200000E-04	2.181125E+13
26	7.500000E-04	2.152384E+13
27	7.800000E-04	2.124580E+13
28	8.100000E-04	2.097655E+13
29	8.400000E-04	2.071556E+13
30	8.700000E-04	2.046235E+13
31	9.000000E-04	2.021649E+13
32	9.300000E-04	1.997757E+13
33	9.600000E-04	1.974523E+13
34	9.900000E-04	1.951914E+13
35	1.020000E-03	1.929897E+13
36	1.050000E-03	1.908445E+13
37	1.080000E-03	1.887531E+13
38	1.110000E-03	1.867130E+13
39	1.140000E-03	1.847219E+13
40	1.170000E-03	1.827776E+13
41	1.200000E-03	1.808782E+13
42	1.230000E-03	1.790217E+13
43	1.260000E-03	1.772065E+13
44	1.290000E-03	1.754308E+13
45	1.320000E-03	1.736931E+13
46	1.350000E-03	1.719920E+13
47	1.380000E-03	1.703261E+13
48	1.410000E-03	1.686941E+13
49	1.440000E-03	1.670947E+13
50	1.470000E-03	1.655269E+13
51	1.500000E-03	1.639894E+13
52	1.530000E-03	1.624813E+13
53	1.560000E-03	1.610016E+13
54	1.590000E-03	1.595493E+13
55	1.620000E-03	1.581236E+13
56	1.650000E-03	1.567236E+13
57	1.680000E-03	1.553485E+13
58	1.710000E-03	1.539975E+13
59	1.740000E-03	1.526700E+13
60	1.770000E-03	1.513651E+13
61	1.800000E-03	1.500822E+13
62	1.830000E-03	1.488207E+13
63	1.860000E-03	1.475800E+13
64	1.890000E-03	1.463595E+13
65	1.920000E-03	1.451586E+13
66	1.950000E-03	1.439768E+13
67	1.980000E-03	1.428136E+13
68	2.010000E-03	1.416684E+13
69	2.040000E-03	1.405408E+13
70	2.070000E-03	1.394304E+13
71	2.100000E-03	1.383366E+13
72	2.130000E-03	1.372592E+13
73	2.160000E-03	1.361976E+13
74	2.190000E-03	1.351514E+13
75	2.220000E-03	1.341204E+13
76	2.250000E-03	1.331041E+13
77	2.280000E-03	1.321022E+13
78	2.310000E-03	1.311143E+13
79	2.340000E-03	1.301401E+13
80	2.370000E-03	1.291793E+13
81	2.400000E-03	1.282316E+13
82	2.430000E-03	1.272967E+13
83	2.460000E-03	1.263743E+13
84	2.490000E-03	1.254641E+13
85	2.520000E-03	1.245659E+13
86	2.550000E-03	1.236794E+13
87	2.580000E-03	1.228044E+13
88	2.610000E-03	1.219406E+13
89	2.640000E-03	1.210877E+13
90	2.670000E-03	1.202456E+13
91	2.700000E-03	1.194140E+13
92	2.730000E-03	1.185927E+13
93	2.760000E-03	1.177815E+13
94	2.790000E-03	1.169803E+13
95	2.820000E-03	1.161887E+13
96	2.850000E-03	1.154066E+13
97	2.880000E-03	1.146339E+13
98	2.910000E-03	1.138703E+13
99	2.940000E-03	1.131157E+13
100	2.970000E-03	1.123699E+13
101	3.000000E-03	1.116327E+13
102	3.030000E-03	1.109040E+13
103	3.060000E-03	1.101837E+13
104	3.090000E-03	1.094714E+13
105	3.120000E-03	1.087673E+13
106	3.150000E-03	1.080710E+13
107	3.180000E-03	1.073824E+13
108	3.210000E-03	1.067014E+13
109	3.240000E-03	1.060279E+13
110	3.270000E-03	1.053617E+13
111	3.300000E-03	1.047027E+13
112	3.330000E-03	1.040508E+13
113	3.360000E-03	1.034059E+13
114	3.390000E-03	1.027678E+13
115	3.420000E-03	1.021364E+13
116	3.450000E-03	1.015117E+13
117	3.480000E-03	1.008934E+13
118	3.510000E-03	1.002816E+13
119	3.540000E-03	9.967606E+12
120	3.570000E-03	9.907671E+12
121	3.600000E-03	9.848346E+12
122	3.630000E-03	9.789620E+12
123	3.660000E-03	9.731485E+12
124	3.690000E-03	9.673930E+12
125	3.720000E-03	9.616947E+12
126	3.750000E-03	9.560527E+12
127	3.780000E-03	9.504662E+12
128	3.810000E-03	9.449342E+12
129	3.840000E-03	9.394559E+12
130	3.870000E-03	9.340306E+12
131	3.900000E-03	9.286574E+12
132	3.930000E-03	9.233356E+12
133	3.960000E-03	9.180644E+12
134	3.990000E-03	9.128430E+12
135	4.020000E-03	9.076708E+12
136	4.050000E-03	9.025470E+12
137	4.080000E-03	8.974708E+12
138	4.110000E-03	8.924417E+12
139	4.140000E-03	8.874590E+12
140	4.170000E-03	8.825219E+12
141	4.200000E-03	8.776299E+12
142	4.230000E-03	8.727823E+12
143	4.260000E-03	8.679784E+12
144	4.290000E-03	8.632178E+12
145	4.320000E-03	8.584998E+12
146	4.350000E-03	8.538237E+12
147	4.380000E-03	8.491891E+12
148	4.410000E-03	8.445954E+12
149	4.440000E-03	8.400420E+12
150	4.470000E-03	8.355284E+12
151	4.500000E-03	8.310540E+12
152	4.530000E-03	8.266184E+12
153	4.560000E-03	8.222210E+12
154	4.590000E-03	8.178613E+12
155	4.620000E-03	8.135388E+12
156	4.650000E-03	8.092531E+12
157	4.680000E-03	8.050036E+12
158	4.710000E-03	8.007900E+12
159	4.740000E-03	7.966117E+12
160	4.770000E-03	7.924683E+12
161	4.800000E-03	7.883594E+12
162	4.830000E-03	7.842844E+12
163	4.860000E-03	7.802431E+12
164	4.890000E-03	7.762350E+12
165	4.920000E-03	7.722596E+12
166	4.950000E-03	7.683166E+12
167	4.980000E-03	7.644056E+12
168	5.010000E-03	7.605262E+12
169	5.040000E-03	7.566779E+12
170	5.070000E-03	7.528605E+12
171	5.100000E-03	7.490736E+12
172	5.130000E-03	7.453167E+12
173	5.160000E-03	7.415895E+12
174	5.190000E-03	7.378918E+12
175	5.220000E-03	7.342230E+12
176	5.250000E-03	7.305830E+12
177	5.280000E-03	7.269713E+12
178	5.310000E-03	7.233876E+12
179	5.340000E-03	7.198316E+12
180	5.370000E-03	7.163030E+12
181	5.400000E-03	7.128015E+12
182	5.430000E-03	7.093267E+12
183	5.460000E-03	7.058784E+12
184	5.490000E-03	7.024562E+12
185	5.520000E-03	6.990599E+12
186	5.550000E-03	6.956892E+12
187	5.580000E-03	6.923438E+12
188	5.610000E-03	6.890233E+12
189	5.640000E-03	6.857276E+12
190	5.670000E-03	6.824564E+12
191	5.700000E-03	6.792093E+12
192	5.730000E-03	6.759862E+12
193	5.760000E-03	6.727867E+12
194	5.790000E-03	6.696106E+12
195	5.820000E-03	6.664577E+12
196	5.850000E-03	6.633277E+12
197	5.880000E-03	6.602203E+12
198	5.910000E-03	6.571353E+12
199	5.940000E-03	6.540726E+12
200	5.970000E-03	6.510318E+12